{
  "GameAssembly.dll": "cd8892c56d5c1e575b8262897b66002e5f911d229688ae4587c841298d4f323ef9c08a3335bae38c02eeaafe3910f6b8f92e894aff531ee2383ee97d53709656",
  "TouchMenuIcons/gesture_finger_gun.png": "36a43d42d7adbc72915e91f2f2bdf91805f289e0489d8042622a4bb6e849e084436d47a46dd92d862fc1d67e156849c6fbfc3663d39404753919f13c0a3df63a",
  "TouchMenuIcons/gesture_fist.png": "55d9fa640b4592c85bf27fe47bd614aa61cbd29439b8cbf3a682147544d6df4601e1bf58da6b5fc15ba5373aafa018acba7bf25ef4b498338f5e69a36d9f675e",
  "TouchMenuIcons/gesture_horns.png": "5a0b9612a3c3795f22ca70c84c05648f0f852802ba5d5298e486e9a7d8cc59c25d376d453b209f0d844429a636b6328737a35fbc49ae9a1aacc6047dbf33088a",
  "TouchMenuIcons/gesture_open.png": "e7988bf5cd3670daca101fabae8009be228bf61fa6f8eed670492bc0885a86ef073532d4fffcc76d6d98dae2c69cd049493b443b567b7829a41401549e9443c4",
  "TouchMenuIcons/gesture_peace.png": "94477e45fb0a4b3827e37e6adb91d25f6dde19a9a29c9733aa1949a2eda02de743fb60ed10b5d89792a29eb8467bc9311885e82501581c150bee47692770fea6",
  "TouchMenuIcons/gesture_point.png": "f44d66eb018a16252a8d261992e184d4e554951122e09f68bd4b1a7e3df2b4631e3d2ef0ef731a83b4f0d059ae9c3c832f78c57291307167cc7eedd3ce4258f0",
  "TouchMenuIcons/gesture_thumbs_up.png": "44d828dfc797c139700817008930b52ce9e147c7f04dd3907581b22335eb01809b84bd2e03955648427ad4e67763c03e255a483d69f0acd88f8a44c4cf5ba152",
  "UnityCrashHandler64.exe": "c16bd2f450c2075bedfa5c5e8b4ace14b5d7c2b5699f0ba0cab6c86830b691657e4e926268ed0148ca01cef0ccfe353f3e07043876ba27e53ed49a91db91062d",
  "UnityPlayer.dll": "b20654957dfe2d21ca9d38930be9d735c76d2ce4eb001d5f36304b3b00dd2b30b29dd9452c074bd2e751e12d6ccd30bfab9a671611b729db29b23e63bf02d8d4",
  "VRChat.exe": "3cb3fc33d4ef4cb9e8fe6d4b7f76819f6cbef787579fa8fcfa0bb3a2661d6719b48a940a1fe014174cfc059d58fcb24bb492107a5a69405bb2306a441a39d67a",
  "VRChat_Data/Plugins/x86_64/AVProVideo.dll": "18377632aa3d641747f8834d023d2ec033e10bd37b3dc3963e304d37952fe6280009e0d13b7b3230480d1b8d749fb2e625b274a994240d125bcf8429d60c5a4b",
  "VRChat_Data/Plugins/x86_64/AVProVideoWinRT.dll": "4bfe9009d974f6a1efc9df26f7f003abe2bc62f1ca6666f68f437f94e1263e9d17931ecfceaaa8c097182e062e1f6c8e61dfd0ceb62e923c749af468d1c56f18",
  "VRChat_Data/Plugins/x86_64/Audio360.dll": "c1b4b7b20fa9dad166a0709f554cd1ff65ef641673e9a4fb8a2d321c35a53f70640e29f12e7e70b9ebcec59ea1ef44f4b960343a86a4b78d9cb80382e06d00ba",
  "VRChat_Data/Plugins/x86_64/AudioPluginInvalidFilter.dll": "a058c5d1892c3b89e6f6baa3471820e85bf5f263202864e1805692348e40938930fe5f0e073b60144129eca48fc28755475627f9a32d4e07bb1695783874d923",
  "VRChat_Data/Plugins/x86_64/AudioPluginOculusSpatializer.dll": "9403c2cf0c9212e04859a8ccd26c66d3897fcc552d09f8c9d72ebb8d3cff1f6a1e4ae089ffa30beca758b326786ee32b878f3867dc5e5cdc1309ca50fe221da7",
  "VRChat_Data/Plugins/x86_64/KinectUnityAddin.dll": "1195540de12f054ee3402d8f40466fe4f6eadac460a45db2f02c24d909360a19e4c2452bf024b00e5ead998249fe208048c538cce8b99ae5b99252d83d5d4f36",
  "VRChat_Data/Plugins/x86_64/NativeProcess.dll": "afe3d0101c47c7cadd1a8f57ff165c755ddc563260f40523ff3e83dd7d6e559d8a8fe291a666c0cd98bc950eb2a2798ba8d83c398981b2f36d0023b176e8e4cf",
  "VRChat_Data/Plugins/x86_64/OVRLipSync.dll": "e4c6c2ca248f580720462751894f194feb42f906f8ebd4f8783edbe1f23a643b3d93fdf97dad5bb2f0219b5c73b0060a20f4a4b4e93dc93ac64689d524d64885",
  "VRChat_Data/Plugins/x86_64/OVRPlugin.dll": "6a74fa50519d536fcfa236522981e090445357bce890246c007859f5378a9e866cd10565091d6ce279fd8e3ba8604f1c0da04295acad8f353a70440853d00c2f",
  "VRChat_Data/Plugins/x86_64/UWKPlugin.dll": "56bbfa31421180ea670337971bcda8118c83105b12f8fd6b23f557947fbbd9d55d66b4eeaf80f7df39d3ebf157d7650bd9bff89c75f3f0104b18b94198598d48",
  "VRChat_Data/Plugins/x86_64/discord_game_sdk.dll": "5e1d72bbb466d032596147dd1a90f5ebcaa82d3d56ee7a0b1aa3a37d4bb42e1fcb510b269451a1b9c7f3b8a1c18b1c5f530b200f2fbbe2ec990b4e1c12e6f5e8",
  "VRChat_Data/Plugins/x86_64/lib_burst_generated.dll": "6447b9788de8bc1f040de9ad62d4440af69905b706c1b410fc5e48b8df292962d0f2be89a44ed0651228dc9b7af1abba268b0b94ae4214dd2320d0d180d14145",
  "VRChat_Data/Plugins/x86_64/liblzma.dll": "4e8d601717e717f59168b687e95a12474364e073a1a1237471933916aba18cc8372ea94b1b3c58ead8d48e1ad670691fbcb3fe183e651add7c1cef028e3fb285",
  "VRChat_Data/Plugins/x86_64/openvr_api.dll": "83f65cefae3a636962bc93c22fa41ceb5d467638f50040923bd24c326b4de415838c19161b7a3aabc9227f4c71d206317db0ee624a420f42a0fa1fadbf8e3191",
  "VRChat_Data/Plugins/x86_64/opus.dll": "6726c8775409175dd47e09f66c832fa537a71d4ed40c396702640eb54cea2d288c1f8c5eaa9cbaff1a6de68c7369c17258986b4d0457191391ea1fa3eb2a2ed6",
  "VRChat_Data/Plugins/x86_64/portmidi.dll": "1d1f4e6b3c7feda6cc3f58cfc8853eec1f686abcc355d68b9bce5f0cc998a4008e1051b06109d13913410acbad4675496c4ed4981ee0a9a9e72f1ac9320ff29a",
  "VRChat_Data/Plugins/x86_64/steam_api64.dll": "de926d38118c808cde4d3a8f6fde7b56b755ef7938b9adadf0efaac45c853f3d19f4cdd5906b02a7dcca7d2c38b8c01cbd401ce3a7f5e3f9221776f0ed49355b",
  "VRChat_Data/Plugins/x86_64/viveport_api64.dll": "4ea4ad91cc27f758ccf6cf1695eb2c60057a3afd93a9e3ebd475feb86580e69d1c483a9dc836c172fb12ed0bba34bad54a4955aa3361167caec1bb58bb8ae8ec",
  "VRChat_Data/Resources/unity default resources": "4f15e548fd55ac48afab96dcb64a9c0d61381396661fad32768ea51c39b53794607b2062ceb21b040bf13dc612ec6cd2161d8312a9ef73c73837f967436d39fc",
  "VRChat_Data/Resources/unity_builtin_extra": "f48a19f3e3a27c23edb42edabe7df2e59a639eef697bb866a405e9929cdb00c90cd2c0a69e214a1530c3fda73e447cb827248b5ff7ee1c1d3d5a7b15f99de1d1",
  "VRChat_Data/StreamingAssets/Avatars/manifest.txt": "289370bbc4bbcddc72fc22c906bb41a86407e0ddf03317a7b5d72fb864cde3dfdb5785a8473e97ab3d55a7ecc11938cee535cc041e700e0e67e476517dcbc528",
  "VRChat_Data/StreamingAssets/Worlds/manifest.txt": "acf64f30774a8c7979c11216e2c128eee5497cd1470de4be7b999d16990b6aba5e75516d80692490b66bfe9daed59039389d5013fd9a502fdd9d05179d0b24f6",
  "VRChat_Data/app.info": "6795f1dd5677c21c93275c4a935bb6428dbf3ed507e2a16e52aa08a71202603f960ac3c202f300eeb365594b108c001cf914645fd01020425c8bd1112a6975c1",
  "VRChat_Data/boot.config": "a9c9e3199135f9ee8bd4b7d7f011e41ba6d5d392e266d9a02636bb9575ca7a5bec75bc329d27185c8ab5a94804ddd6f01418c0a84b0affd7bf390029396eb058",
  "VRChat_Data/globalgamemanagers": "e2534dbbbf519e5b05a8e08637b3edb984c5aa6185d2a18a02fc785b8f1e4d0ba1dde916deafdaabaabae27282df64ac75843eae5fcde64d7023ca70d824bc50",
  "VRChat_Data/globalgamemanagers.assets": "a05f658fb5dd51e0076f9edb4067098a0aa6091558dd9bedadd6f98ea5068ccf24b3ccd61c566b0742d6cea92e4144d63a354bcd7bcee162359670d8223f2956",
  "VRChat_Data/il2cpp_data/Metadata/global-metadata.dat": "59d8bcc9406f7d2843898c1e1da57c2d7401d4b31b11dc4740a5ef4ff506a681bfac1ce4552111a1bc31d1ea1b5c60fcf0e7a0d9f0204d863490500e215706d3",
  "VRChat_Data/il2cpp_data/Resources/Newtonsoft.Json.dll-resources.dat": "0c244ef5c739f4fd2b5788fec7133e2d5e129fe53ed3b1f21dd358823894f787001f108763bed7962cdbe25925904f8d20e5c407ba381b410257e2c51dded558",
  "VRChat_Data/il2cpp_data/Resources/System.Buffers.dll-resources.dat": "661e57f6c0c2513ca9c612f1ecd6f7696958b7417f36fbb0886b499c98c7c71cae61fa06c72c04b5d584870fadb5ab730c86671103a368eb3365bf7f9f3e6639",
  "VRChat_Data/il2cpp_data/Resources/System.Collections.Immutable.dll-resources.dat": "1424e7fd61c3eeff74324a05d74c89351147f58bbe8f376334629879ef00a1dcaf3410a950070cbf63392e06ac116b6c731ccf61e7405263f4039c27ad68edb7",
  "VRChat_Data/il2cpp_data/Resources/System.Memory.dll-resources.dat": "cc7468512aeb205cf2df2453b100326ca5707fd3eb5017ea9e1b9b49cc36191a8f1d8013788180b7e443e1a0336cf1e975f557c02929065d4e0ad30c45f4f627",
  "VRChat_Data/il2cpp_data/Resources/System.Numerics.Vectors.dll-resources.dat": "76257f9ee9f0dbde4a5c8eb7baba4776a78d3978bd8b3d7168a7d10992bff7b4493eec48a6b86913b4848b6a56beaa75f79010fb70fd5c230113f8e960dda477",
  "VRChat_Data/il2cpp_data/Resources/mscorlib.dll-resources.dat": "2971f54eaa14c3ce6e2352e5a1aea5b044f0894bf4eac92de8cd92515b6473b5ca56ebfcad4369a9d4935cbefea2540a83f332fd4d832c37768310e8776ceb5e",
  "VRChat_Data/il2cpp_data/etc/mono/2.0/Browsers/Compat.browser": "4b7549eda1f8ed2c4533d056b62ca5030445393f9c6003e5ee47301ff7f44b4bd5022b74d54f571aa890b6e4593c6eded1a881500ac5ba2a720dc0ff280300af",
  "VRChat_Data/il2cpp_data/etc/mono/2.0/DefaultWsdlHelpGenerator.aspx": "380e97f7c17ee0fdf6177ed65f6e30de662a33a8a727d9f1874e9f26bd573434c3dedd655b47a21b998d32aaa72a0566df37e901fd6c618854039d5e0cbef3f5",
  "VRChat_Data/il2cpp_data/etc/mono/2.0/machine.config": "5d3ee2ee7921c95cc30790ae670fcadcf091d4fa1b9b5e1b9c7500c67230abe25467236ed160c51aa662e764ccea10e4955887359a65b09432b727abf27f8454",
  "VRChat_Data/il2cpp_data/etc/mono/2.0/settings.map": "c1352e817e01277413a1790a94a4f979dc1b8333874fef28d735441c034c97bf8ce501fd9cd04c47d25541a0c1d54fcd4dd3bee9ac3e8fbde83ada9a1d2662d7",
  "VRChat_Data/il2cpp_data/etc/mono/2.0/web.config": "80f5da60654e1851ef21526e434b32d94e18883a08bacbbaa0e1f85b80469c46510b6ddb9b429f16cc4be89c6f2bb2627bbae9cb1d0c7e45b665efb7721c6d86",
  "VRChat_Data/il2cpp_data/etc/mono/4.0/Browsers/Compat.browser": "4b7549eda1f8ed2c4533d056b62ca5030445393f9c6003e5ee47301ff7f44b4bd5022b74d54f571aa890b6e4593c6eded1a881500ac5ba2a720dc0ff280300af",
  "VRChat_Data/il2cpp_data/etc/mono/4.0/DefaultWsdlHelpGenerator.aspx": "380e97f7c17ee0fdf6177ed65f6e30de662a33a8a727d9f1874e9f26bd573434c3dedd655b47a21b998d32aaa72a0566df37e901fd6c618854039d5e0cbef3f5",
  "VRChat_Data/il2cpp_data/etc/mono/4.0/machine.config": "f9960b5d5e7db35fe4a492dbba1f90cd0f0f0c4d84349baf33de3a941de57cffdec670b5be9862306503f7b5d57a697208921e7099cea13d4daf3310840ff4d2",
  "VRChat_Data/il2cpp_data/etc/mono/4.0/settings.map": "c18bcbcbd4b9a20a72b1a934d70db1eafef047f34f3ba2c6357d8e3afed07ecaab861e5571ceb58c22d4d3e5ebb34b51e366a0553c3153fbc263d1d80472e297",
  "VRChat_Data/il2cpp_data/etc/mono/4.0/web.config": "00ddca43ad38127cf71477810c46617fc2ccdc33f197e26ba761151107eff701fec2caa51e43575fb5b4fbc11f640f525ba70b6b3e97811cecabc63773492401",
  "VRChat_Data/il2cpp_data/etc/mono/4.5/Browsers/Compat.browser": "4b7549eda1f8ed2c4533d056b62ca5030445393f9c6003e5ee47301ff7f44b4bd5022b74d54f571aa890b6e4593c6eded1a881500ac5ba2a720dc0ff280300af",
  "VRChat_Data/il2cpp_data/etc/mono/4.5/DefaultWsdlHelpGenerator.aspx": "380e97f7c17ee0fdf6177ed65f6e30de662a33a8a727d9f1874e9f26bd573434c3dedd655b47a21b998d32aaa72a0566df37e901fd6c618854039d5e0cbef3f5",
  "VRChat_Data/il2cpp_data/etc/mono/4.5/machine.config": "ced7c9a5363cabdb87b01ed6b4ca190a690640dddf5cbcc0438acdc611a8ee942cb6cd73c78d3fc2d59f70171f22ac832a10b1e23758dc92599ee24acd978ac2",
  "VRChat_Data/il2cpp_data/etc/mono/4.5/settings.map": "c18bcbcbd4b9a20a72b1a934d70db1eafef047f34f3ba2c6357d8e3afed07ecaab861e5571ceb58c22d4d3e5ebb34b51e366a0553c3153fbc263d1d80472e297",
  "VRChat_Data/il2cpp_data/etc/mono/4.5/web.config": "a1ee7f17bb069ac42483d1f98ca839ff1bd06f3fc15cd379dff4aca3732a5dac24dc17e15acc8f8fa39e60e186219f4fd70664f9ea284002274a4ff8609791ed",
  "VRChat_Data/il2cpp_data/etc/mono/browscap.ini": "d0d181e806cbd2c016eb0a8786f7d9db877463eaac0195db4e891be111c9ed87491a1abcfa0d9ed7c2743e004e1f4a3f4789333d0b535e63358c672ae833c363",
  "VRChat_Data/il2cpp_data/etc/mono/config": "f9558f9e985643d8205b5534998412a5896bb6f5712bce5d6cf27469200eed64f29efc01936ab00c4a93625b0fc573036fba00ba2c4eb1d1d7c47555608f11e8",
  "VRChat_Data/il2cpp_data/etc/mono/mconfig/config.xml": "d6d4a8321eb44c117755a41a2590296be86a0568d27a5347f9d7f32f2d151d8f7e169675c83faed2dab5ad0f8d81858f8cd1167e439cd4bff7e68c243e3544fd",
  "VRChat_Data/level0": "d3dbd5d1a402bad2b011abd1cc275768be63339657bfcc576f46fd654bc743fbbf1949d70656f05171cdb09fc74b678094b2c387009d5c37c161c5ea55f45d68",
  "VRChat_Data/level1": "8d0b58394f588bebaabbe8155e7f35e7b8b91bfecfe1ebc962ab40774545773ee893be43e7c2fef5698b985cce7d4d996865b1568fe944e868ad0a388ddb08e4",
  "VRChat_Data/level2": "23e2f7a6696d479c0f09d5769d9bae0717599ee75ce4a3e05dc4eb2bff6fef67fcb234d51c2031fdbd07268a056fa2eea39c1643c7690ac59aff874c159a6254",
  "VRChat_Data/level2.resS": "f1f9e328255230dafce247e7f31083c1dd19b72a360f4bbcc99fc9094b1252165008c8e2ae2ff18c6e687a8ad2e4ed112955798cf2e1e615a00ca3f2f0ecf7d4",
  "VRChat_Data/level3": "8b57b0fedf9cc5cafe4221fecad61d40e72dea05ca9eafebf814113dc59542813bbf535f981029140c6c59f621ff2c54271078eafc2626b5d431839432251a69",
  "VRChat_Data/level4": "af48b5a726f1af67084a89bd45c7d35a2c75925cc9758c0995f822ef0fdd15c8d222756ed1b5c053179f1e3f71e3c0d1bcd05d829d78ea0af6f355b4974826e0",
  "VRChat_Data/level5": "8b57b0fedf9cc5cafe4221fecad61d40e72dea05ca9eafebf814113dc59542813bbf535f981029140c6c59f621ff2c54271078eafc2626b5d431839432251a69",
  "VRChat_Data/resources.assets": "2b18bd31407734a099554f5b185f0e4112dfc0709de4900b6a2d88c535b5d0368bd16043e6e8b75193dd7cfb7f730de452fbbbd6223c65a30d3f5920255229ce",
  "VRChat_Data/resources.assets.resS": "18872cb00f1cf9893b5d3aa9feef7e0f8153ad1f66f8464142ec1996af764dd0d232d684a7f39a9210b8f5742ecb5b1787087434a5fc58f49f21b2858c1116bf",
  "VRChat_Data/sharedassets0.assets": "3d640f1dee6226aec038400fdcfdb81dd0607f262ea4fce4e39841f67bdd4a758e6abeb4ed8e1883dfbaed7bf4947f4813e61e1b4dcb5eea10e200a0f0d633dd",
  "VRChat_Data/sharedassets0.assets.resS": "87f9afb3416921046bfddffc983fdf9c2c67507efb958f96fb003f04b3a8affe4cc71c53cad38f266f10ff336f6830a4c57b61cd32f21773ff352bab2d71e4b7",
  "VRChat_Data/sharedassets0.resource": "c3a560c465d3e73669ba12a78ee278c727b543a06d61c7a44a41ffd8aaf64c62a15b44b2e8630c2d663ab86cfc2a8e5b49beda2d7406c9e0e276f860abcc5dfa",
  "VRChat_Data/sharedassets1.assets": "684f5105e01f5525d183cefbc05d6e5fc77ec532539065700975d4ffb1bd89061ddbc57359222cf01bcf2cfff4abee682c17e18f3a6a291526337be89d368c8f",
  "VRChat_Data/sharedassets1.assets.resS": "d9df4f157160fcb0c139bbc301dbf5c3a9777780382de12c7b33642b2c6bfddec8b24e11050d860b7ebaf3bf6ef09187b2fe48d21be0fa5bc89dcbfa3235a568",
  "VRChat_Data/sharedassets1.resource": "8f978881aee76686d7ebcadba3b6ce897bf682bf54c0eb9621fc258489d365fffea14ce2a0e4293dd926caacc50311eafb468be0a1fef5afd4e12d780c38b445",
  "VRChat_Data/sharedassets2.assets": "8955816e2a4da9e804ace8f039121f67343ef0fdca4aac6d74fdb2937a18cf1363e073c9883839b1124097ebb33c0601d35f33114bc7a651d7330cfb3c2c4ad1",
  "VRChat_Data/sharedassets3.assets": "d973538c5647b55472bcb4649593b1a6572a66c2f527fbadac259af7e6989c5b8bca55947bf0c739fe2a6a7389c81e6bd8aa2e514d4de5d4a128ef54773be203",
  "VRChat_Data/sharedassets3.assets.resS": "b98018d1c634188eb7b9c67bd923d7b08fe3c9a5b225ac1ef45a158ab6372024310b66eb32a29ca43caa9105021b57811c91448c63ec7a1e7574040dc82af1a1",
  "VRChat_Data/sharedassets4.assets": "bc2915b5558d159ee1e6ebef6b7179dc22b7eeb3117ab7090fd827c7449e31f9c1ef44a5bc48cf1ea9083b8c877ec32ea2178e00a20062e56254fa6dca0db2cb",
  "VRChat_Data/sharedassets4.assets.resS": "cf633ec96e80045ab03bb1cc9d500e379c2b28d0cb8613d6942852cb52c78b2c06fbf5a4de98a343831e90307d42acce276be50e74e3d78bc8f2f368b988834f",
  "VRChat_Data/sharedassets5.assets": "cd610b8b26de52086d567a15d465e5ec621e5edc72d0c30a755078947c359f582774cd3493bdc1865e4dd99a019e899ebbd0a7e943464e2879215d0ba83bd541",
  "_CommonRedist/vcredist/2010/installscript.vdf": "ab787d0511295bcdb3edc67a744a82abc2df0b59cc50e0edb72865a4e4f4c471a0f4888af52d92d6ad4dd986dd35594dfed21ef8afaf9264f6b8826c50904f8c",
  "_CommonRedist/vcredist/2010/vcredist_x64.exe": "24b56b5d9b48d75baf53a98e007ace3e7d68fbd5fa55b75ae1a2c08dd466d20b13041f80e84fdb64b825f070843f9247daba681eff16baf99a4b14ea99f5cfd6",
  "_CommonRedist/vcredist/2010/vcredist_x86.exe": "0b8f20b0f171f49eb49367f1aafa7101e1575ef055d7007197c21ab8fe8d75a966569444449858c31bd147357d2bf5a5bd623fe6c4dbabdc7d16999b3256ab8c",
  "_CommonRedist/vcredist/2019/Microsoft Visual C++ 2019 x64.cmd": "ddfe19d501bdc713d85dc1ba96bfb2a14ea01661b5115e1374fc80c83d5d6ab6fffb2375ca5e0121725a3f6d853fe7ba72cf6791cdab699a3171bdd288d05948",
  "_CommonRedist/vcredist/2019/Microsoft Visual C++ 2019 x86.cmd": "642676197b92ea837d475ccf2754217d1ed0bba7985cbd72202eb9b27541b08093c37dd3217b8946182bfd6b8a7f4f54357f294fc32d1449279390aa65a169d2",
  "_CommonRedist/vcredist/2019/VC_redist.x64.exe": "3076aa5583c2ee719f9755fb6aefc1f01f37a33491a7d336c39f9ad303e671574498a0dc16b64e3744098c86ac43ccb916557a4866caf1a5f4b1f5ec68446d47",
  "_CommonRedist/vcredist/2019/VC_redist.x86.exe": "17d286311f8aee8866fb7dfbb12fc28fe98e57a460c086fd30bce421c1cd8c0549d92ba5a90c4557eb263ad29a0655da9022603979079022a414c0c5805cf9a1",
  "_CommonRedist/vcredist/2019/installscript.vdf": "a43366eddfbcbfbffefd34cc7eec4f1d4a17bd441f45574275bc26154cef7023eec0c47f09847674c9cbbd1354bf7920f0635bd8936e55ae2da1ca928597a05a",
  "install.exe": "6f429fdada238fd6e7876a6360510ed3444ec3b212a5e29a1a0137fe8569a74caf450cbcf57c0d3f0aa3035ae6a68e986150f37f07338c7d31bedee261f54ad9",
  "launch.exe": "e7d31dd835d990a458f03ed619bf2b7172c133dd3b1dfa2b8281656e73939e2632574ddf092bbfe712c931705b97a55c8bcc7f9fc2b3b7122d43caed24e6f667",
  "steam_appid.txt": "2b0bb3c9dfc33b443125bcc848c2bb7156a29cdcd1338610e2d429704238faa2c8ad3534fbec236a54f77cf79d5be7cd627d56377925759607a191ce04d09ef0"
}